101;бак металлический
102;бак полиэтиленовый
103;бандероль
1052;банка жестяная
1053;банка из полиэтилентерефталата
1054;банка картонная
1055;банка комбинированная
1056;банка металлическая
1057;банка пластиковая
1058;банка полимерная
1059;банка полимерная светонепроницаемая
1060;банка полипропиленовая
1061;банка полистироловая
1062;банка полиэтиленовая
1064;банка темного полиэтилентерефталата
1065;банка темного стекла
1071;барабан алюминиевый
1072;барабан бумажный
1073;барабан жестяной
1074;барабан картонный
1075;барабан картонный навивной
1076;барабан металлический
1077;барабан пластиковый
1078;барабан полипропиленовый
1079;барабан полиэтиленовый
1080;барабан стальной
1081;барабан фанерный
1082;барабан фибровый
1083;барабан фиброкартонный многослойный
1092;бидон алюминиевый
1093;бидон жестяной
1094;бидон металлический
1095;бидон полимерный
1096;бидон полиэтиленовый
10111;"блок ""Стери-Неб"""
10121;бочка алюминиевая
10122;бочка деревянная
10123;бочка жестяная
10124;бочка картонная
10125;бочка металлическая
10130;бочка пластиковая
10131;бочка полимерная
10132;бочка полиэтиленовая
10133;бочка стальная
10134;бочка фибровая
10141;бумага оберточная
10142;бумага оберточная с покрытием полимерным
10143;бумага пергаментная
10144;бумага светонепроницаемая
10145;бумага фильтровальная двухслойная 
10151;бутыль пластиковая
10152;бутыль пластиковая светонепроницаемая
10153;бутыль для крови и кровезаменителей
10161;ведро пластиковое
10162;ведро полимерное
10163;ведро полипропиленовое
10164;ведро полиэтиленовое
10170;вкладыш фиксирующий 
10180;держатель картонный 
10190;дозирующее устройство - изихейлер с защитным футляром
10201;емкость алюминиевая
10202;емкость пластиковая
10203;емкость полимерная
10204;емкость полипропиленовая
10205;емкость полиэтиленовая
10211;ингалятор дозирующий
10212;"ингалятор дозирующий ""Мультидиск"""
10213;"ингалятор дозирующий ""Мультихалер"""
10220;канистра алюминиевая
10230;капсула картонная
10240;картон упаковочный 
10250;"картриджная система ""ОптиКлик"""
10261;кассета пластиковая
10270;книжка-раскладушка картонная
10281;комплект упаковочно-фармацевтический
10282;комплект упаковочный транспортный
10283;комплект упаковочный транспортный для радиоактивных веществ
10291;конверт алюминиевый ламинированный
10292;конверт бумажный
10293;конверт картонный
10301;контейнер алюминиевый
10302;контейнер герметичный из поливинилхлорида и ламинированной бумаги
10303;контейнер из материала комбинированного
10304;контейнер из материала комбинированного многослойного
10305;контейнер из многослойного материала
10306;контейнер из пенопласта
10307;контейнер из фольги алюминиевой многослойной
10308;контейнер картонный
10309;контейнер металлический
10312;контейнер оловянный
10313;контейнер поливинилхлорида
10314;контейнер пластиковый
10315;"контейнер пластиковый ""Onco-Safe"""
10316;контейнер пластиковый (поддон)
10317;"контейнер пластиковый из поливинилхлорида ""Виафлекс"""
10318;"контейнер пластиковый из полиэтилена, полиамида, полипропилена ""Виафло"""
10319;контейнер пластиковый из полиэтилена, полиамида, полипропилена Клиа-Флекс (Clear-Flex)
10320;контейнер пластиковый сдвоенный
10321;контейнер полимерный
10322;контейнер полипропиленовый
10323;контейнер полистироловый
10324;контейнер полиэтиленовый
10325;контейнер свинцовый
10326;контейнер стальные
10327;контейнер фибровый
10401;короб картонный
10402;короб пенопластовый
10403;короб пластиковый
10405;коробка бумажная
10406;коробка жестяная
10407;коробка из термокола
10408;коробка картонная
10409;коробка картонная ламинированная
10410;коробка картонная трехслойная
10411;коробка металлическая
10412;коробка поливинилхлорида
10413;коробка пенопластовая
10414;коробка пенополистироловая
10415;коробка пенорезиновая
10416;коробка пластиковая
10417;коробка полипропиленовая
10418;коробка полистироловая
10419;коробка полиэтиленовая
10420;коробка фибровая
10430;корпус защитный пластиковый
10440;крафт-мешок
10451;лента упаковочная
10461;лотка картонная 
10471;мешок алюминевый трехслойный
10472;мешок алюминиевый 
10473;мешок алюминиевый ламинированный
10474;мешок бумажно-пластиковый двухслойный
10475;мешок бумажно-полиэтиленовый двухслойный
10476;мешок бумажный
10477;мешок бумажный двухслойный
10478;мешок бумажный ламинированный
10479;мешок бумажный многослойный
10480;мешок бумажный трехслойный
10481;мешок бумажный четырехслойный
10482;мешок из материала комбинированного
10483;мешок из фольги алюминиевой
10484;мешок ламинированный светонепроницаемый трехслойный
10485;мешок ламинированный трехслойный
10486;мешок многослойный
10487;мешок многослойный из материала, комбинированного
10488;мешок многослойный ламинированный
10489;мешок поливинилхлорида 
10491;мешок пластиковый
10492;мешок пластиковый двухслойный
10493;мешок полимерный
10494;мешок полимерные двухслойный
10495;мешок полипропиленовый
10496;мешок полиэтиленовый
10497;мешок полиэтиленовый двухслойный
10498;мешок полиэтиленовый многослойный
10479;мешок полиэтиленовый светонепроницаемый
10480;мешок полиэтиленовый трехслойный
10481;мешок тканевой
10501;моноблок из 12 баллонов
10502;моноблок из 24 баллонов
10503;моноблок из 36 баллонов
10510;мультиупаковка
10520;обертка из фольги алюминиевой
10521;обертка из бумаги
10522;обертка из бумаги мешочной
10523;обертка из бумаги пергаментной
10524;обертка из материала пленочного
10525;обертка целлюлозная
10531;обложка бумажная
10532;обложка картонная
10533;обложка пластиковая
10540;оболочка защитная
10541;оболочка полиэтиленовая
10551;пакет алюминиевый
10557;"пакет из материала комбинированного ""Буфлен"""
10558;пакет многослойный ламинированный
10561;пакет алюминизированный
10562;пакет бумажный
10563;пакет бумажный двухслойный
10564;пакет бумажный ламинированный
10565;пакет бумажный ламинированный трехслойный
10566;пакет бумажный многослойный
10567;пакет бумажный светонепроницаемый
10568;пакет из фольги алюминиевой
10569;пакет из фольги алюминиевой двухслойный
10570;пакет из фольги алюминиевой ламинированной
10571;пакет из фольги алюминиевой многослойной
10572;пакет из фольги алюминиевой трехслойный
10573;пакет из пленки воздушно-пузырчатой
10574;пакет из материала комбинированного
10575;пакет из материала комбинированного на основе фольги алюминиевой 
10576;пакет из материала комбинированного спаренного
10577;пакет из материала комбинированного термосвариваемого
10578;пакет из материалов комбинированных
10579;пакет из материалов комбинированных многослойных
10580;пакет из пленки
10581;"пакет из пленки ""Повиден"""
10582;пакет из пленки полиэтилен высокого давления
10583;пакет из пленки полиэтилен низкого давления
10584;пакет картонный
10585;пакет ламинированный
10586;пакет ламинированный трехслойный
10587;пакет ламинированный трехслойный светозащитный
10588;пакет металлизированный
10589;пакет металлизированный полиэтиленовый
10590;пакет многослойный
10591;пакет поливинилхлорида
10592;пакет поливинилхлорида светонепроницаемый
10593;пакет пергаментный
10594;пакет пластиковый
10595;пакет пластиковый ламинированный алюминиевый
10596;пакет пленочный
10597;пакет полимерный
10600;пакет полимерный двухслойный
10601;пакет полимерный многослойный
10602;пакет полимерный термосвариваемый
10603;пакет полимерный термосвариваемый светонепроницаемый
10604;пакет полипропиленовые
10605;пакет полипропиленовый двухслойный
10606;пакет полистироловый
10607;пакет полиэтиленовый
10608;пакет полиэтиленовыйдвухслойный
10609;пакет полиэтиленовый двухслойный светонепроницаемый
10610;пакет полиэтиленовый многослойный
10611;пакет полиэтиленовый светонепроницаемый
10612;пакет полиэтиленовый термосвариваемый
10613;пакет полиэтиленовый термосвариваемый ламинированный
10614;пакет полиэтилентерефталатный
10615;пакет полиэтилен-целлофан
10616;пакет светонепроницаемый
10617;пакет термосвариваемый
10618;пакет трехслойный ламинированный
10619;пакет целлофановый
10621;пачка бумажная
10622;пачка картонная
10623;пачка картонная комбинированная
10624;пачка картонная оклеенная бандеролью
10625;пачка картонная с гнездом
10626;пачка картонная с перегородкой
10630;пачка кассетная контурная
10631;пачка полимерная
10632;пачка полиэтиленовая
10633;пачка-конверт
10634;пачка-конверт с приспособлением для подвешивания
10641;пенал картонный
10642;пенал пластиковый
10643;пенал пластиковый с зеркалом
10644;пенал полимерный
10645;пенал полистироловый
10646;пенал полиэтиленовый
10650;планшет
10661;пленка полимерная 
10662;пленка полиэтиленовая
10663;пленка полиэтиленовая светозащитная
10664;пленка термоусадочная
10671;поддон картонный
10672;поддон картонный обтянутый пленкой
10673;поддон пластиковый
10674;поддон пластиковый закрытый
10675;поддон пластиковый обтянутый пленкой
10681;пробирка металлическая
10690;рукава полиэтиленовые
10710;стакан пластиковый
10740;тара картонная
10741;тара полимерная
10742;тара транспортная
10751;термоконтейнер пенополиуретановый
10770;упаковка полипропиленовая
10783;упаковка бумажная
10784;упаковка защитная из фольги
10785;упаковка защитная полимерная
10786;упаковка из пленочного материала комбинированного
10787;упаковка из материалов комбинированных
10788;упаковка картонная
10789;упаковка кассетная контурная
10790;упаковка комбинированная
10791;упаковка комбинированная картонная
10792;упаковка контурная
10793;упаковка контурная из поливинилхлорида
10794;упаковка контурная картонная
10795;упаковка контурная пластиковая (поддон)
10796;упаковка пластиковая
10797;упаковка пленочная
10798;упаковка пленочная герметичная
10799;упаковка полимерная
10800;упаковка полиэтиленовая
10801;упаковка полиэтиленовая из пленки термоусадочной
10803;упаковка ячейковая контурная в комплекте с крышкой-капельницей
10804;упаковка ячейковая контурная кассетная
10808;упаковка ячейковая контурная композиционная
10810;упаковка ячейковая контурная спаренная
10821;флакон алюминиевый 
10822;флакон поливинилхлорида 
10823;флакон пластиковый 
10824;флакон полистироловый 
10825;флакон полиэтиленовый 
10830;фляга алюминиевая
10831;фляга металлическая
10840;фольга алюминиевая
10841;фольга ламинированная 
10851;футляр пластиковый
10852;футляр полипропиленовый
10853;футляр полиэтиленовый
10860;холодильная камера с мешками для льда
10871;цилиндр полиэтиленовый
10881;"шприц-ручка ""БиоматикПен2"" "
10882;"шприц-ручка ""ОптиСет"" "
10883;"шприц-ручка ""СолоСтар"" одноразовые "
10884;"шприц-ручка ""ФлексПен"" "
10885;"шприц-ручка ""ПроКлик"""
10886;"шприц-ручка ""СолоСтар"" "
10890;штатив пластиковый
10901;ящик алюминиевый
10901;ящик картонный
10902;ящик фанерный
10901;ящик алюминиевый
10902;ящик фанерный
